G04 #@! TF.FileFunction,Other,User*
%FSLAX46Y46*%
G04 Gerber Fmt 4.6, Leading zero omitted, Abs format (unit mm)*
G04 Created by KiCad (PCBNEW 4.0.2-4+6225~38~ubuntu14.04.1-stable) date Sat 30 Apr 2016 02:32:36 AM WEST*
%MOMM*%
G01*
G04 APERTURE LIST*
%ADD10C,0.100000*%
%ADD11C,0.200000*%
G04 APERTURE END LIST*
D10*
D11*
X150000000Y-35000000D02*
X35000000Y-35000000D01*
X150000000Y-80000000D02*
X150000000Y-35000000D01*
X35000000Y-80000000D02*
X150000000Y-80000000D01*
X35000000Y-35000000D02*
X35000000Y-80000000D01*
M02*
